infra_label,free,paid,internal
git_lfs,0.49,0.45,0.06
continuous_integration,0.36,0.21,0.43
dependency_proxy,0.4,0.54,0.06
build_artifacts,0.49,0.45,0.06
registry,0.4,0.4,0.2
gitaly,0.6,0.2,0.2
infrastructure,0,0,1
pages,0.33,0.33,0.33
runner_saas,0,1,0
security,0,0,1
shared,0.33,0.33,0.33
